{
  "ip_servidor_central": "192.168.1.146",
  "porta_servidor_central": 10861,
  "ip_servidor_distribuido": "192.168.1.129",
  "porta_servidor_distribuido": 10866,
    "nome": "Térreo",
    "outputs": [
        {
          "type": "lampada",
          "tag": "Lâmpada da Sala 01",
          "gpio": 26
        },
        {
          "type": "lampada",
          "tag": "Lâmpada da Sala 02",
          "gpio": 19
        },
        {
          "type": "ar-condicionado",
          "tag": "Ar-Condicionado Terreo",
          "gpio": 13
        },
        {
          "type": "projetor",
          "tag": "Projetor Multimídia",
          "gpio": 6
        },
        {
          "type": "alarme",
          "tag": "Alarme (buzzer)",
          "gpio": 5
        }
    ],
    "inputs": [
        {
          "type": "presenca",
          "tag": "Sensor de Presença",
          "gpio": 0
        },
        {
          "type": "fumaca",
          "tag": "Sensor de Fumaça",
          "gpio": 11
        },  
        {
          "type": "janela",
          "tag": "Sensor de Janela T01",
          "gpio": 9
        },
        {
            "type": "janela",
            "tag": "Sensor de Janela T02",
            "gpio": 10
        },
        {
          "type": "contagem",
          "tag": "Sensor de Contagem de Pessoas Entrando no 1º Andar",
          "gpio": 22
        },
        {
          "type": "contagem",
          "tag": "Sensor de Contagem de Pessoas Saindo do 1º Andar",
          "gpio": 27
        }
    ],
    "sensor_temperatura":[
        {
          "model": "dth22",
          "tag": "Sensor de Temperatura e Umidade",
          "gpio": 18
        }
    ]
  }
  